[
  "010001000           ",
  "010001100           ",
  "010001200           ",
  "010001300           ",
  "010001400           ",
  "010001500           ",
  "010001600           ",
  "010001700           ",
  "010004000           ",
  "010004100           ",
  "010004300           ",
  "010004400           ",
  "010004500           ",
  "010005000           ",
  "010006000           ",
  "010007000           ",
  "010008000           ",
  "010009000           ",
  "010010000           ",
  "010011000           "
]