{
  "Parcel Number": "010001000",
  "Zone": "VenableURBH",
  "Current Owner": "FEDERAL REALTY INVESTMENT TRUST",
  "Owner Address (with city and state)": {
    "ownerAddress": "1626 EAST JEFFERSON STREET",
    "ownerCity": "ROCKVILLE MD"
  },
  "School Zone": "Venable",
  "Acreage": "39.8320"
}